[
{
  "image": {
    "name": "../tmp/11039808612606/bG9jYXRpbw==.png",
    "format": "PNG",
    "formatDescription": "Portable Network Graphics",
    "mimeType": "image/png",
    "class": "DirectClass",
    "geometry": {
      "width": 189,
      "height": 189,
      "x": 0,
      "y": 0
    },
    "units": "Undefined",
    "type": "TrueColorAlpha",
    "endianess": "Undefined",
    "colorspace": "sRGB",
    "depth": 8,
    "baseDepth": 8,
    "channelDepth": {
      "alpha": 8,
      "red": 8,
      "green": 8,
      "blue": 8
    },
    "pixels": 35721,
    "imageStatistics": {
      "all": {
        "min": 0,
        "max": 255,
        "mean": 66.7019,
        "standardDeviation": 21761.4,
        "kurtosis": -0.524197,
        "skewness": 1.05779,
        "entropy": 0.191741
      }
    },
    "channelStatistics": {
      "alpha": {
        "min": 255,
        "max": 0,
        "mean": 138.627,
        "standardDeviation": 32481.5,
        "kurtosis": -1.96195,
        "skewness": 0.175361,
        "entropy": 0.160194
      },
      "red": {
        "min": 0,
        "max": 255,
        "mean": 16.4012,
        "standardDeviation": 14440.1,
        "kurtosis": 13.8257,
        "skewness": 3.96179,
        "entropy": 0.193275
      },
      "green": {
        "min": 0,
        "max": 255,
        "mean": 50.2668,
        "standardDeviation": 16604.1,
        "kurtosis": 2.48934,
        "skewness": 1.49925,
        "entropy": 0.202193
      },
      "blue": {
        "min": 0,
        "max": 255,
        "mean": 83.7669,
        "standardDeviation": 23520,
        "kurtosis": -1.65294,
        "skewness": 0.282975,
        "entropy": 0.211303
      }
    },
    "alpha": "#00000000",
    "renderingIntent": "Perceptual",
    "gamma": 0.454545,
    "chromaticity": {
      "redPrimary": {
        "x": 0.64,
        "y": 0.33
      },
      "greenPrimary": {
        "x": 0.3,
        "y": 0.6
      },
      "bluePrimary": {
        "x": 0.15,
        "y": 0.06
      },
      "whitePrimary": {
        "x": 0.3127,
        "y": 0.329
      }
    },
    "backgroundColor": "#FFFFFFFF",
    "borderColor": "#DFDFDFFF",
    "matteColor": "#BDBDBDFF",
    "transparentColor": "#00000000",
    "interlace": "None",
    "intensity": "Undefined",
    "compose": "Over",
    "pageGeometry": {
      "width": 189,
      "height": 189,
      "x": 0,
      "y": 0
    },
    "dispose": "Undefined",
    "iterations": 0,
    "compression": "Zip",
    "orientation": "Undefined",
    "properties": {
      "date:create": "2021-12-08T14:28:48+00:00",
      "date:modify": "2021-12-08T14:28:48+00:00",
      "png:IHDR.bit-depth-orig": "8",
      "png:IHDR.bit_depth": "8",
      "png:IHDR.color-type-orig": "6",
      "png:IHDR.color_type": "6 (RGBA)",
      "png:IHDR.interlace_method": "0 (Not interlaced)",
      "png:IHDR.width,height": "189, 189",
      "png:sRGB": "intent=0 (Perceptual Intent)",
      "signature": "d19145b2bb6bc5c63e39560b4b516a9b641f43c778485f784bc125986a2f2473"
    },
    "artifacts": {
      "filename": "../tmp/11039808612606/bG9jYXRpbw==.png"
    },
    "tainted": false,
    "filesize": "0B",
    "numberPixels": "35721",
    "pixelsPerSecond": "24.6361MB",
    "userTime": "0.000u",
    "elapsedTime": "0:01.001",
    "version": "ImageMagick 6.9.10-86 Q16 x86_64 2020-01-13 https://imagemagick.org"
  }
}
]