{
  "project_info": {
    "project_number": "332102276597",
    "project_id": "arwa-dba53",
    "storage_bucket": "arwa-dba53.appspot.com"
  },
  "client": [
    {
      "client_info": {
        "mobilesdk_app_id": "1:332102276597:android:7f4122a2940b2926a3fcbc",
        "android_client_info": {
          "package_name": "com.coke.d2h"
        }
      },
      "oauth_client": [
        {
          "client_id": "332102276597-5ib4skkbcoo7pq16bncqisfi2fmqejfh.apps.googleusercontent.com",
          "client_type": 1,
          "android_info": {
            "package_name": "com.coke.d2h",
            "certificate_hash": "db01b47e4887c0cdefdc00d2715c6a91ce5e7d40"
          }
        },
        {
          "client_id": "332102276597-40cfauii4q01uj6cu8gism8sepf21hs7.apps.googleusercontent.com",
          "client_type": 3
        }
      ],
      "api_key": [
        {
          "current_key": "AIzaSyDsOI12dJ6lxRhTqozqioi9jGPpg9D1hB0"
        }
      ],
      "services": {
        "appinvite_service": {
          "other_platform_oauth_client": [
            {
              "client_id": "332102276597-40cfauii4q01uj6cu8gism8sepf21hs7.apps.googleusercontent.com",
              "client_type": 3
            }
          ]
        }
      }
    }
  ],
  "configuration_version": "1"
}